DATE,ENDPOINT,"SINGLE HOST","UNIQUE HOST",CHROME,FIREFOX,OPERA,SAFARI,IE
"01/Aug/2018:08:50:26 +0000",https://abn.dev-t-syd.honcho.be/,0,0,1,0,0,1,0
"08/Aug/2018:08:50:26 +0000",https://abn.dev-t-syd.honcho.be/sample,0,0,1,0,0,1,0
"08/Aug/2018:08:50:26 +0000",https://abn.dev-t-syd.honcho.be/sample,0,0,1,0,0,1,0
"08/Aug/2018:08:50:26 +0000",https://abn.dev-t-syd.honcho.be/sample,0,0,1,0,0,1,0
